-17.15
-12.95
-11.9
-6.39000000000001
-6.18000000000001
-5.87
-4.59
-4.53999999999999
-4.50999999999999
-4.45000000000002
-3.78
-3.67999999999998
-3.58000000000001
-3.47
-3.44999999999999
-3.36999999999998
-3.32999999999998
-3.30000000000001
-3.30000000000001
-3.28999999999999
-3.09999999999999
-3.09
-2.94000000000003
-2.94
-2.93000000000001
-2.91
-2.88
-2.82999999999998
-2.81
-2.80000000000001
-2.78999999999999
-2.78
-2.75999999999999
-2.66000000000003
-2.53999999999999
-2.51999999999998
-2.51999999999998
-2.43000000000001
-2.42000000000002
-2.41999999999999
-2.41
-2.36000000000001
-2.33000000000001
-2.33000000000001
-2.31999999999999
-2.31
-2.25999999999999
-2.20000000000002
-2.16999999999999
-2.12
-2.11000000000001
-2.09999999999999
-2.09
-2.09
-2.09
-2.05000000000001
-2.03999999999999
-2.03999999999999
-2
-2
-1.97
-1.93000000000001
-1.92000000000002
-1.92000000000002
-1.91
-1.90000000000001
-1.88999999999999
-1.82999999999998
-1.82999999999998
-1.76999999999998
-1.74000000000001
-1.74000000000001
-1.73999999999998
-1.73999999999998
-1.72999999999999
-1.71000000000001
-1.70999999999998
-1.70000000000002
-1.69999999999999
-1.69
-1.66999999999999
-1.66
-1.66
-1.65000000000001
-1.65000000000001
-1.63
-1.57999999999998
-1.57000000000002
-1.53999999999999
-1.52000000000001
-1.50999999999999
-1.5
-1.49000000000001
-1.47000000000003
-1.47
-1.46000000000001
-1.44
-1.41999999999999
-1.39999999999998
-1.39000000000001
-1.37
-1.35000000000002
-1.34999999999999
-1.34
-1.34
-1.34
-1.32999999999998
-1.31999999999999
-1.29000000000002
-1.28
-1.28
-1.26999999999998
-1.26999999999998
-1.25999999999999
-1.25
-1.23000000000002
-1.23000000000002
-1.22999999999999
-1.21000000000001
-1.16
-1.15000000000001
-1.13999999999999
-1.13
-1.12
-1.11000000000001
-1.09999999999999
-1.07999999999998
-1.06
-1.06
-1.05000000000001
-1.05000000000001
-1.04000000000002
-1.03
-1.03
-1.03
-1.02000000000001
-1.01999999999998
-1.00999999999999
-1
-0.990000000000009
-0.97999999999999
-0.969999999999999
-0.95999999999998
-0.95999999999998
-0.950000000000017
-0.949999999999989
-0.939999999999998
-0.930000000000007
-0.920000000000016
-0.919999999999987
-0.919999999999987
-0.909999999999997
-0.889999999999986
-0.889999999999986
-0.880000000000024
-0.860000000000014
-0.850000000000023
-0.840000000000003
-0.840000000000003
-0.830000000000013
-0.830000000000013
-0.830000000000013
-0.819999999999993
-0.819999999999993
-0.780000000000001
-0.75
-0.740000000000009
-0.740000000000009
-0.730000000000018
-0.72999999999999
-0.719999999999999
-0.710000000000008
-0.70999999999998
-0.680000000000007
-0.679999999999978
-0.670000000000016
-0.659999999999997
-0.650000000000006
-0.639999999999986
-0.629999999999995
-0.620000000000005
-0.610000000000014
-0.609999999999985
-0.590000000000003
-0.590000000000003
-0.590000000000003
-0.580000000000013
-0.569999999999993
-0.569999999999993
-0.550000000000011
-0.539999999999992
-0.5
-0.5
-0.5
-0.490000000000009
-0.490000000000009
-0.489999999999981
-0.460000000000008
-0.450000000000017
-0.450000000000017
-0.449999999999989
-0.449999999999989
-0.449999999999989
-0.439999999999998
-0.439999999999998
-0.439999999999998
-0.439999999999998
-0.420000000000016
-0.420000000000016
-0.390000000000015
-0.379999999999995
-0.379999999999995
-0.369999999999976
-0.359999999999985
-0.349999999999994
-0.340000000000003
-0.340000000000003
-0.310000000000002
-0.300000000000011
-0.299999999999983
-0.269999999999982
-0.269999999999982
-0.259999999999991
-0.25
-0.240000000000009
-0.230000000000018
-0.219999999999999
-0.210000000000008
-0.210000000000008
-0.20999999999998
-0.200000000000017
-0.199999999999989
-0.180000000000007
-0.179999999999978
-0.159999999999997
-0.159999999999997
-0.150000000000006
-0.150000000000006
-0.149999999999977
-0.139999999999986
-0.129999999999995
-0.120000000000005
-0.120000000000005
-0.120000000000005
-0.120000000000005
-0.119999999999976
-0.119999999999976
-0.110000000000014
-0.110000000000014
-0.100000000000023
-0.0999999999999943
-0.0999999999999943
-0.0900000000000034
-0.0900000000000034
-0.0699999999999932
-0.0600000000000023
-0.0600000000000023
-0.0600000000000023
-0.039999999999992
-0.039999999999992
-0.00999999999999091
0.00999999999999091
0.0199999999999818
0.0300000000000011
0.0300000000000011
0.0400000000000205
0.0499999999999829
0.0500000000000114
0.0500000000000114
0.0900000000000034
0.0999999999999943
0.109999999999985
0.129999999999995
0.129999999999995
0.139999999999986
0.139999999999986
0.140000000000015
0.169999999999987
0.180000000000007
0.189999999999998
0.190000000000026
0.219999999999999
0.22999999999999
0.22999999999999
0.239999999999981
0.25
0.259999999999991
0.280000000000001
0.300000000000011
0.300000000000011
0.300000000000011
0.329999999999984
0.330000000000013
0.340000000000003
0.340000000000003
0.340000000000003
0.360000000000014
0.370000000000005
0.370000000000005
0.389999999999986
0.390000000000015
0.390000000000015
0.429999999999978
0.469999999999999
0.47999999999999
0.47999999999999
0.480000000000018
0.489999999999981
0.5
0.5
0.519999999999982
0.530000000000001
0.54000000000002
0.550000000000011
0.550000000000011
0.550000000000011
0.560000000000002
0.589999999999975
0.599999999999994
0.600000000000023
0.609999999999985
0.609999999999985
0.609999999999985
0.619999999999976
0.659999999999997
0.670000000000016
0.679999999999978
0.689999999999998
0.699999999999989
0.700000000000017
0.70999999999998
0.710000000000008
0.740000000000009
0.75
0.75
0.75
0.760000000000019
0.77000000000001
0.780000000000001
0.789999999999992
0.800000000000011
0.810000000000002
0.810000000000002
0.819999999999993
0.830000000000013
0.840000000000003
0.840000000000003
0.849999999999994
0.889999999999986
0.889999999999986
0.919999999999987
0.929999999999978
0.949999999999989
0.949999999999989
0.960000000000008
0.960000000000008
0.969999999999999
0.97999999999999
0.980000000000018
0.990000000000009
1
1.01999999999998
1.02000000000001
1.03999999999999
1.04000000000002
1.04999999999998
1.05000000000001
1.05000000000001
1.06
1.06
1.09
1.09
1.10999999999999
1.13
1.15000000000001
1.16
1.17000000000002
1.19
1.19999999999999
1.19999999999999
1.21000000000001
1.22999999999999
1.27000000000001
1.28
1.31
1.32999999999998
1.32999999999998
1.32999999999998
1.33000000000001
1.34
1.34
1.34
1.34
1.34
1.35999999999999
1.37
1.38
1.38999999999999
1.40000000000001
1.44
1.44
1.44000000000003
1.47
1.5
1.50999999999999
1.52000000000001
1.54999999999998
1.56999999999999
1.57999999999998
1.58000000000001
1.58999999999998
1.59999999999999
1.61000000000001
1.61000000000001
1.62
1.62
1.62
1.63
1.63000000000002
1.66
1.68000000000001
1.69
1.72
1.72999999999999
1.75
1.75999999999999
1.75999999999999
1.82000000000002
1.83000000000001
1.83000000000001
1.84999999999999
1.84999999999999
1.86000000000001
1.86000000000001
1.93000000000001
1.94
1.94999999999999
1.97000000000003
1.98000000000002
1.98000000000002
2.00999999999999
2.03
2.03999999999999
2.04000000000002
2.06
2.06999999999999
2.06999999999999
2.07999999999998
2.10999999999999
2.11000000000001
2.12
2.13
2.18000000000001
2.20999999999998
2.21000000000001
2.23999999999998
2.25
2.25999999999999
2.26000000000002
2.28
2.32999999999998
2.41000000000003
2.48999999999998
2.54999999999998
2.56
2.57000000000002
2.58000000000001
2.58000000000001
2.59999999999999
2.74000000000001
2.75
2.75999999999999
2.75999999999999
2.78
2.88999999999999
2.94
3.19
3.19000000000003
3.20000000000002
3.24000000000001
3.34999999999999
3.38999999999999
3.41
3.44
3.45000000000002
3.50999999999999
3.59999999999999
3.65000000000001
3.71000000000001
3.74000000000001
3.75
3.78
3.87
4.09999999999999
4.77000000000001
4.79999999999998
4.84
5.04999999999998
5.07999999999998
6.78999999999999
8.63999999999999
