\select@language {english}
\contentsline {section}{\numberline {1}Preliminaries}{1}
\contentsline {section}{\numberline {2}Wiener process (Brownian motion)}{1}
\contentsline {section}{\numberline {3}The quadratic variation of a Wiener process}{3}
\contentsline {section}{\numberline {4}Stochastic It\^o integrals}{5}
\contentsline {section}{\numberline {5}Stochastic calculus}{14}
